{
  "_comment": "FOR DETAILED FORMAT LOOK AT https://docs.docker.com/engine/api/v1.22/#create-a-container",
  "AttachStdin": true,
  "OpenStdin": true,
  "HostConfig": {
    "PortBindings": {
      "8000/tcp": [
        {
          "HostIp": "0.0.0.0",
          "HostPort": "8000"
        }
      ]
    }
  }
}